<?xml version="1.0" encoding="UTF-8"?>
<TestRun id="ada53e34-973d-47b2-a62e-434ba718b1da" name="kalamon@PIVO 2010-06-25 14:58:06" runUser="pivo\kalamon"
         xmlns="http://microsoft.com/schemas/VisualStudio/TeamTest/2006">
    <TestRunConfiguration name="Default Run Configuration" id="bdd422d9-2dcd-4765-853c-689df47e9b87">
        <Deployment
                runDeploymentRoot="C:\Users\kalamon\bamboo-home\xml-data\build-dir\BNT-CLONE\TestProject\bin\Debug\TestResults\kalamon_PIVO 2010-06-25 14_58_06"/>
        <Hosts skipUnhostableTests="false"/>
        <TestTypeSpecific/>
    </TestRunConfiguration>
    <ResultSummary outcome="Failed">
        <Counters total="2" executed="2" passed="1" error="0" failed="1" timeout="0" aborted="0" inconclusive="0"
                  passedButRunAborted="0" notRunnable="0" notExecuted="0" disconnected="0" warning="0" completed="0"
                  inProgress="0" pending="0"/>
        <Output>
            <StdOut>MyClassInitialize
            </StdOut>                    
        </Output>
    </ResultSummary>
    <Times creation="2010-06-25T14:58:06.7504791+02:00" queuing="2010-06-25T14:58:07.3995162+02:00"
           start="2010-06-25T14:58:07.6235290+02:00" finish="2010-06-25T14:58:08.2415644+02:00"/>
    <TestDefinitions>
        <UnitTest name="failingTest"
                  storage="c:\users\kalamon\bamboo-home\xml-data\build-dir\bnt-clone\testproject\bin\debug\testproject.dll"
                  id="1f8b511c-6d78-2870-8351-8ec3bb238707">
            <Css projectStructure="" iteration=""/>
            <Owners>
                <Owner name=""/>
            </Owners>
            <Execution id="b51d1022-1f86-4972-a3b9-57c63061d5a1"/>
            <TestMethod
                    codeBase="C:/Users/kalamon/bamboo-home/xml-data/build-dir/BNT-CLONE/TestProject/bin/Debug/TestProject.DLL"
                    adapterTypeName="Microsoft.VisualStudio.TestTools.TestTypes.Unit.UnitTestAdapter, Microsoft.VisualStudio.QualityTools.Tips.UnitTest.Adapter"
                    className="TestProject.UnitTest, TestProject, Version=1.0.0.0, Culture=neutral, PublicKeyToken=null"
                    name="failingTest"/>
        </UnitTest>
        <UnitTest name="successfulTest"
                  storage="c:\users\kalamon\bamboo-home\xml-data\build-dir\bnt-clone\testproject\bin\debug\testproject.dll"
                  id="e1bb3393-a8f5-2ec9-48b3-7a2a394a6f22">
            <Css projectStructure="" iteration=""/>
            <Owners>
                <Owner name=""/>
            </Owners>
            <Execution id="e1dfb021-6544-470c-92c9-ec955eb7b192"/>
            <TestMethod
                    codeBase="C:/Users/kalamon/bamboo-home/xml-data/build-dir/BNT-CLONE/TestProject/bin/Debug/TestProject.DLL"
                    adapterTypeName="Microsoft.VisualStudio.TestTools.TestTypes.Unit.UnitTestAdapter, Microsoft.VisualStudio.QualityTools.Tips.UnitTest.Adapter"
                    className="TestProject.UnitTest, TestProject, Version=1.0.0.0, Culture=neutral, PublicKeyToken=null"
                    name="successfulTest"/>
        </UnitTest>
    </TestDefinitions>
    <TestLists>
        <TestList name="Results Not in a List" id="8c84fa94-04c1-424b-9868-57a2d4851a1d"/>
        <TestList name="All Loaded Results" id="19431567-8539-422a-85d7-44ee4e166bda"/>
    </TestLists>
    <TestEntries>
        <TestEntry testId="1f8b511c-6d78-2870-8351-8ec3bb238707" executionId="b51d1022-1f86-4972-a3b9-57c63061d5a1"
                   testListId="8c84fa94-04c1-424b-9868-57a2d4851a1d"/>
        <TestEntry testId="e1bb3393-a8f5-2ec9-48b3-7a2a394a6f22" executionId="e1dfb021-6544-470c-92c9-ec955eb7b192"
                   testListId="8c84fa94-04c1-424b-9868-57a2d4851a1d"/>
    </TestEntries>
    <Results>
        <UnitTestResult executionId="b51d1022-1f86-4972-a3b9-57c63061d5a1" testId="1f8b511c-6d78-2870-8351-8ec3bb238707"
                        testName="failingTest" computerName="PIVO" duration="00:00:00.1035943"
                        startTime="2010-06-25T14:58:07.6625312+02:00" endTime="2010-06-25T14:58:08.2035622+02:00"
                        testType="13cdc9d9-ddb5-4fa4-a97d-d965ccfc6d4b" outcome="Failed"
                        testListId="8c84fa94-04c1-424b-9868-57a2d4851a1d">
            <Output>
                <ErrorInfo>
                    <Message>Assert.Fail failed. Failing on purpose</Message>
                    <StackTrace>w TestProject.UnitTest.failingTest() w
                        c:\Users\kalamon\bamboo-home\xml-data\build-dir\BNT-CLONE\TestProject\UnitTest1.cs:wiersz 55
                    </StackTrace>
                </ErrorInfo>
            </Output>
        </UnitTestResult>
        <UnitTestResult executionId="e1dfb021-6544-470c-92c9-ec955eb7b192" testId="e1bb3393-a8f5-2ec9-48b3-7a2a394a6f22"
                        testName="successfulTest" computerName="PIVO" duration="00:00:00.0002503"
                        startTime="2010-06-25T14:58:08.2035622+02:00" endTime="2010-06-25T14:58:08.2055623+02:00"
                        testType="13cdc9d9-ddb5-4fa4-a97d-d965ccfc6d4b" outcome="Passed"
                        testListId="8c84fa94-04c1-424b-9868-57a2d4851a1d">
            <Output>
            </Output>
        </UnitTestResult>
    </Results>
</TestRun>